{
    "key": "group_58e5762493fb1",
    "title": "Options: Header",
    "fields": [
        {
            "key": "field_5f21a175a842c",
            "label": "Announcement Banner",
            "name": "",
            "aria-label": "",
            "type": "tab",
            "instructions": "",
            "required": 0,
            "conditional_logic": 0,
            "wrapper": {
                "width": "",
                "class": "",
                "id": ""
            },
            "placement": "top",
            "endpoint": 0,
            "wpml_cf_preferences": 0
        },
        {
            "key": "field_5f21a17fa842d",
            "label": "Show Announcement Banner",
            "name": "show_announcement_banner",
            "aria-label": "",
            "type": "true_false",
            "instructions": "",
            "required": 0,
            "conditional_logic": 0,
            "wrapper": {
                "width": "",
                "class": "",
                "id": ""
            },
            "message": "",
            "default_value": 0,
            "ui": 1,
            "ui_on_text": "Show",
            "ui_off_text": "Hide",
            "wpml_cf_preferences": 0
        },
        {
            "key": "field_5f21a18ba842e",
            "label": "Announcement Banner",
            "name": "announcement_banner",
            "aria-label": "",
            "type": "textarea",
            "instructions": "",
            "required": 0,
            "conditional_logic": 0,
            "wrapper": {
                "width": "",
                "class": "",
                "id": ""
            },
            "default_value": "",
            "placeholder": "",
            "maxlength": "",
            "rows": 4,
            "new_lines": "br",
            "wpml_cf_preferences": 0
        },
        {
            "key": "field_5f21a37ed2c19",
            "label": "Announcement Banner Overlay",
            "name": "announcement_banner_overlay",
            "aria-label": "",
            "type": "wysiwyg",
            "instructions": "",
            "required": 0,
            "conditional_logic": 0,
            "wrapper": {
                "width": "",
                "class": "",
                "id": ""
            },
            "wpml_cf_preferences": 0,
            "default_value": "",
            "tabs": "all",
            "toolbar": "full",
            "media_upload": 0,
            "delay": 0
        },
        {
            "key": "field_5f21a199a842f",
            "label": "Utility Navigation",
            "name": "",
            "aria-label": "",
            "type": "tab",
            "instructions": "",
            "required": 0,
            "conditional_logic": 0,
            "wrapper": {
                "width": "",
                "class": "",
                "id": ""
            },
            "placement": "top",
            "endpoint": 0,
            "wpml_cf_preferences": 0
        },
        {
            "key": "field_5f21a1fca8436",
            "label": "Header Message",
            "name": "header_message",
            "aria-label": "",
            "type": "wysiwyg",
            "instructions": "",
            "required": 0,
            "conditional_logic": 0,
            "wrapper": {
                "width": "",
                "class": "",
                "id": ""
            },
            "default_value": "",
            "tabs": "all",
            "toolbar": "full",
            "media_upload": 0,
            "delay": 0,
            "wpml_cf_preferences": 0
        },
        {
            "key": "field_61e08609a82c3",
            "label": "Marquee",
            "name": "marquee",
            "aria-label": "",
            "type": "repeater",
            "instructions": "",
            "required": 0,
            "conditional_logic": 0,
            "wrapper": {
                "width": "",
                "class": "",
                "id": ""
            },
            "wpml_cf_preferences": 3,
            "collapsed": "",
            "min": 0,
            "max": 0,
            "layout": "table",
            "button_label": "+ Add Link",
            "sub_fields": [
                {
                    "key": "field_61e08699d77b6",
                    "label": "Text",
                    "name": "text",
                    "aria-label": "",
                    "type": "wysiwyg",
                    "instructions": "",
                    "required": 0,
                    "conditional_logic": 0,
                    "wrapper": {
                        "width": "",
                        "class": "",
                        "id": ""
                    },
                    "default_value": "",
                    "tabs": "all",
                    "toolbar": "full",
                    "media_upload": 0,
                    "delay": 0,
                    "wpml_cf_preferences": 0,
                    "parent_repeater": "field_61e08609a82c3"
                }
            ],
            "rows_per_page": 20
        },
        {
            "key": "field_5f21a1dca8433",
            "label": "Network Navigation",
            "name": "network_navigation",
            "aria-label": "",
            "type": "repeater",
            "instructions": "",
            "required": 0,
            "conditional_logic": 0,
            "wrapper": {
                "width": "",
                "class": "",
                "id": ""
            },
            "wpml_cf_preferences": 1,
            "collapsed": "",
            "min": 0,
            "max": 0,
            "layout": "table",
            "button_label": "+ Add Logo",
            "sub_fields": [
                {
                    "key": "field_5f21a1eea8434",
                    "label": "Logo",
                    "name": "logo",
                    "aria-label": "",
                    "type": "image",
                    "instructions": "",
                    "required": 0,
                    "conditional_logic": 0,
                    "wrapper": {
                        "width": "",
                        "class": "",
                        "id": ""
                    },
                    "wpml_cf_preferences": 0,
                    "return_format": "array",
                    "preview_size": "medium",
                    "library": "all",
                    "min_width": "",
                    "min_height": "",
                    "min_size": "",
                    "max_width": "",
                    "max_height": "",
                    "max_size": "",
                    "mime_types": "",
                    "parent_repeater": "field_5f21a1dca8433"
                },
                {
                    "key": "field_5f21a1f3a8435",
                    "label": "Link",
                    "name": "link",
                    "aria-label": "",
                    "type": "text",
                    "instructions": "",
                    "required": 0,
                    "conditional_logic": 0,
                    "wrapper": {
                        "width": "",
                        "class": "",
                        "id": ""
                    },
                    "wpml_cf_preferences": "",
                    "default_value": "",
                    "placeholder": "",
                    "prepend": "",
                    "append": "",
                    "maxlength": "",
                    "parent_repeater": "field_5f21a1dca8433"
                },
                {
                    "key": "field_5f21d3531c0fe",
                    "label": "Name",
                    "name": "name",
                    "aria-label": "",
                    "type": "text",
                    "instructions": "",
                    "required": 0,
                    "conditional_logic": 0,
                    "wrapper": {
                        "width": "",
                        "class": "",
                        "id": ""
                    },
                    "wpml_cf_preferences": 0,
                    "default_value": "",
                    "placeholder": "",
                    "prepend": "",
                    "append": "",
                    "maxlength": "",
                    "parent_repeater": "field_5f21a1dca8433"
                }
            ],
            "rows_per_page": 20
        },
        {
            "key": "field_61e086345a33f",
            "label": "Popular Searches",
            "name": "popular_searches",
            "aria-label": "",
            "type": "repeater",
            "instructions": "",
            "required": 0,
            "conditional_logic": 0,
            "wrapper": {
                "width": "",
                "class": "",
                "id": ""
            },
            "wpml_cf_preferences": 1,
            "collapsed": "",
            "min": 0,
            "max": 0,
            "layout": "table",
            "button_label": "+ Add Link",
            "sub_fields": [
                {
                    "key": "field_61e086345a340",
                    "label": "Link",
                    "name": "link",
                    "aria-label": "",
                    "type": "link",
                    "instructions": "",
                    "required": 0,
                    "conditional_logic": 0,
                    "wrapper": {
                        "width": "",
                        "class": "",
                        "id": ""
                    },
                    "return_format": "array",
                    "wpml_cf_preferences": 0,
                    "parent_repeater": "field_61e086345a33f"
                }
            ],
            "rows_per_page": 20
        },
        {
            "key": "field_5f21a1a5a8430",
            "label": "Main Navigation",
            "name": "",
            "aria-label": "",
            "type": "tab",
            "instructions": "",
            "required": 0,
            "conditional_logic": 0,
            "wrapper": {
                "width": "",
                "class": "",
                "id": ""
            },
            "placement": "top",
            "endpoint": 0,
            "wpml_cf_preferences": 0
        },
        {
            "key": "field_5f21a165a842a",
            "label": "Site Logo",
            "name": "site_logo",
            "aria-label": "",
            "type": "image",
            "instructions": "",
            "required": 0,
            "conditional_logic": 0,
            "wrapper": {
                "width": "",
                "class": "",
                "id": ""
            },
            "return_format": "array",
            "preview_size": "medium",
            "library": "all",
            "min_width": "",
            "min_height": "",
            "min_size": "",
            "max_width": "",
            "max_height": "",
            "max_size": "",
            "mime_types": "",
            "wpml_cf_preferences": 0
        },
        {
            "key": "field_61d4cf2db0c04",
            "label": "Main Navigation",
            "name": "main_navigation",
            "aria-label": "",
            "type": "flexible_content",
            "instructions": "",
            "required": 0,
            "conditional_logic": 0,
            "wrapper": {
                "width": "",
                "class": "",
                "id": ""
            },
            "wpml_cf_preferences": 0,
            "layouts": {
                "layout_5f21a22908434": {
                    "key": "layout_5f21a22908434",
                    "name": "basic_link",
                    "label": "Basic Link",
                    "display": "block",
                    "sub_fields": [
                        {
                            "key": "field_61d4cf2db0c05",
                            "label": "Link",
                            "name": "link",
                            "aria-label": "",
                            "type": "link",
                            "instructions": "",
                            "required": 0,
                            "conditional_logic": 0,
                            "wrapper": {
                                "width": "",
                                "class": "",
                                "id": ""
                            },
                            "wpml_cf_preferences": 0,
                            "return_format": "array"
                        }
                    ],
                    "min": "",
                    "max": ""
                },
                "layout_5f21a259a843b": {
                    "key": "layout_5f21a259a843b",
                    "name": "dropdown",
                    "label": "Dropdown",
                    "display": "block",
                    "sub_fields": [
                        {
                            "key": "field_61d4cf2db0c06",
                            "label": "Label",
                            "name": "label",
                            "aria-label": "",
                            "type": "text",
                            "instructions": "Top Level Nav Item (e.g. Products, Collections, etc.)",
                            "required": 0,
                            "conditional_logic": 0,
                            "wrapper": {
                                "width": "",
                                "class": "",
                                "id": ""
                            },
                            "wpml_cf_preferences": 0,
                            "default_value": "",
                            "placeholder": "",
                            "prepend": "",
                            "append": "",
                            "maxlength": ""
                        },
                        {
                            "key": "field_61d4cf2db0c08",
                            "label": "Columns",
                            "name": "columns",
                            "aria-label": "",
                            "type": "repeater",
                            "instructions": "",
                            "required": 0,
                            "conditional_logic": 0,
                            "wrapper": {
                                "width": "",
                                "class": "",
                                "id": ""
                            },
                            "wpml_cf_preferences": 0,
                            "collapsed": "",
                            "min": 3,
                            "max": 3,
                            "layout": "table",
                            "button_label": "+ Add Column",
                            "sub_fields": [
                                {
                                    "key": "field_61d4cfacb0c0f",
                                    "label": "Type",
                                    "name": "type",
                                    "aria-label": "",
                                    "type": "button_group",
                                    "instructions": "",
                                    "required": 0,
                                    "conditional_logic": 0,
                                    "wrapper": {
                                        "width": "15",
                                        "class": "",
                                        "id": ""
                                    },
                                    "wpml_cf_preferences": 0,
                                    "choices": {
                                        "links": "Links",
                                        "promo": "Promo"
                                    },
                                    "allow_null": 0,
                                    "default_value": "",
                                    "layout": "horizontal",
                                    "return_format": "value",
                                    "parent_repeater": "field_61d4cf2db0c08"
                                },
                                {
                                    "key": "field_61d4d09b31a09",
                                    "label": "Link Group",
                                    "name": "link_group",
                                    "aria-label": "",
                                    "type": "group",
                                    "instructions": "",
                                    "required": 0,
                                    "conditional_logic": [
                                        [
                                            {
                                                "field": "field_61d4cfacb0c0f",
                                                "operator": "==",
                                                "value": "links"
                                            }
                                        ]
                                    ],
                                    "wrapper": {
                                        "width": "",
                                        "class": "",
                                        "id": ""
                                    },
                                    "layout": "block",
                                    "wpml_cf_preferences": 0,
                                    "sub_fields": [
                                        {
                                            "key": "field_61d4d0a531a0a",
                                            "label": "Header",
                                            "name": "header",
                                            "aria-label": "",
                                            "type": "text",
                                            "instructions": "",
                                            "required": 0,
                                            "conditional_logic": 0,
                                            "wrapper": {
                                                "width": "",
                                                "class": "",
                                                "id": ""
                                            },
                                            "wpml_cf_preferences": 0,
                                            "default_value": "",
                                            "placeholder": "",
                                            "prepend": "",
                                            "append": "",
                                            "maxlength": ""
                                        },
                                        {
                                            "key": "field_61d4cf2db0c0a",
                                            "label": "Links",
                                            "name": "links",
                                            "aria-label": "",
                                            "type": "repeater",
                                            "instructions": "",
                                            "required": 0,
                                            "conditional_logic": 0,
                                            "wrapper": {
                                                "width": "",
                                                "class": "",
                                                "id": ""
                                            },
                                            "wpml_cf_preferences": 0,
                                            "collapsed": "",
                                            "min": 0,
                                            "max": 0,
                                            "layout": "table",
                                            "button_label": "+ Add Sub Links",
                                            "sub_fields": [
                                                {
                                                    "key": "field_61d4cf2db0c0b",
                                                    "label": "Link",
                                                    "name": "link",
                                                    "aria-label": "",
                                                    "type": "link",
                                                    "instructions": "",
                                                    "required": 0,
                                                    "conditional_logic": 0,
                                                    "wrapper": {
                                                        "width": "",
                                                        "class": "",
                                                        "id": ""
                                                    },
                                                    "wpml_cf_preferences": 0,
                                                    "return_format": "array",
                                                    "parent_repeater": "field_61d4cf2db0c0a"
                                                }
                                            ],
                                            "rows_per_page": 20
                                        }
                                    ],
                                    "parent_repeater": "field_61d4cf2db0c08"
                                },
                                {
                                    "key": "field_61d4cf8fb0c0c",
                                    "label": "Promo",
                                    "name": "promo",
                                    "aria-label": "",
                                    "type": "group",
                                    "instructions": "",
                                    "required": 0,
                                    "conditional_logic": [
                                        [
                                            {
                                                "field": "field_61d4cfacb0c0f",
                                                "operator": "==",
                                                "value": "promo"
                                            }
                                        ]
                                    ],
                                    "wrapper": {
                                        "width": "",
                                        "class": "",
                                        "id": ""
                                    },
                                    "layout": "block",
                                    "wpml_cf_preferences": 0,
                                    "sub_fields": [
                                        {
                                            "key": "field_61d4cfa6b0c0e",
                                            "label": "Link",
                                            "name": "link",
                                            "aria-label": "",
                                            "type": "link",
                                            "instructions": "",
                                            "required": 0,
                                            "conditional_logic": 0,
                                            "wrapper": {
                                                "width": "",
                                                "class": "",
                                                "id": ""
                                            },
                                            "return_format": "array",
                                            "wpml_cf_preferences": 0
                                        },
                                        {
                                            "key": "field_61d4cfa2b0c0d",
                                            "label": "Photo",
                                            "name": "photo",
                                            "aria-label": "",
                                            "type": "image",
                                            "instructions": "",
                                            "required": 0,
                                            "conditional_logic": 0,
                                            "wrapper": {
                                                "width": "",
                                                "class": "",
                                                "id": ""
                                            },
                                            "return_format": "array",
                                            "preview_size": "medium",
                                            "library": "all",
                                            "min_width": "",
                                            "min_height": "",
                                            "min_size": "",
                                            "max_width": "",
                                            "max_height": "",
                                            "max_size": "",
                                            "mime_types": "",
                                            "wpml_cf_preferences": 0
                                        }
                                    ],
                                    "parent_repeater": "field_61d4cf2db0c08"
                                }
                            ],
                            "rows_per_page": 20
                        }
                    ],
                    "min": "",
                    "max": ""
                }
            },
            "button_label": "+ Add Nav Section",
            "min": "",
            "max": ""
        },
        {
            "key": "field_5f21a1afa8431",
            "label": "Account Link",
            "name": "account_link",
            "aria-label": "",
            "type": "text",
            "instructions": "",
            "required": 0,
            "conditional_logic": 0,
            "wrapper": {
                "width": "",
                "class": "",
                "id": ""
            },
            "wpml_cf_preferences": 0,
            "default_value": "",
            "placeholder": "",
            "prepend": "",
            "append": "",
            "maxlength": ""
        },
        {
            "key": "field_5f21a1c1a8432",
            "label": "Cart Link",
            "name": "cart_link",
            "aria-label": "",
            "type": "text",
            "instructions": "",
            "required": 0,
            "conditional_logic": 0,
            "wrapper": {
                "width": "",
                "class": "",
                "id": ""
            },
            "wpml_cf_preferences": 0,
            "default_value": "",
            "placeholder": "",
            "prepend": "",
            "append": "",
            "maxlength": ""
        },
        {
            "key": "field_5f21da4e2053b",
            "label": "Blog Navigation",
            "name": "",
            "aria-label": "",
            "type": "tab",
            "instructions": "",
            "required": 0,
            "conditional_logic": 0,
            "wrapper": {
                "width": "",
                "class": "",
                "id": ""
            },
            "wpml_cf_preferences": 0,
            "placement": "top",
            "endpoint": 0
        },
        {
            "key": "field_62b63150b0e96",
            "label": "Blog Logo",
            "name": "blog_logo",
            "aria-label": "",
            "type": "image",
            "instructions": "",
            "required": 0,
            "conditional_logic": 0,
            "wrapper": {
                "width": "",
                "class": "",
                "id": ""
            },
            "return_format": "array",
            "preview_size": "medium",
            "library": "all",
            "min_width": "",
            "min_height": "",
            "min_size": "",
            "max_width": "",
            "max_height": "",
            "max_size": "",
            "mime_types": "",
            "wpml_cf_preferences": 0
        },
        {
            "key": "field_5f21da2520539",
            "label": "Blog Navigation",
            "name": "blog_navigation",
            "aria-label": "",
            "type": "repeater",
            "instructions": "",
            "required": 0,
            "conditional_logic": 0,
            "wrapper": {
                "width": "",
                "class": "",
                "id": ""
            },
            "wpml_cf_preferences": 2,
            "collapsed": "",
            "min": 0,
            "max": 0,
            "layout": "table",
            "button_label": "+ Add Link",
            "sub_fields": [
                {
                    "key": "field_5f21da3b2053a",
                    "label": "Link",
                    "name": "link",
                    "aria-label": "",
                    "type": "link",
                    "instructions": "",
                    "required": 0,
                    "conditional_logic": 0,
                    "wrapper": {
                        "width": "",
                        "class": "",
                        "id": ""
                    },
                    "wpml_cf_preferences": 2,
                    "return_format": "array",
                    "parent_repeater": "field_5f21da2520539"
                }
            ],
            "rows_per_page": 20
        },
        {
            "key": "field_5f21a16ca842b",
            "label": "Code",
            "name": "",
            "aria-label": "",
            "type": "tab",
            "instructions": "",
            "required": 0,
            "conditional_logic": 0,
            "wrapper": {
                "width": "",
                "class": "",
                "id": ""
            },
            "placement": "top",
            "endpoint": 0,
            "wpml_cf_preferences": 0
        },
        {
            "key": "field_5a874a23e540f",
            "label": "Head HTML",
            "name": "head_html",
            "aria-label": "",
            "type": "textarea",
            "instructions": "",
            "required": 0,
            "conditional_logic": 0,
            "wrapper": {
                "width": "",
                "class": "",
                "id": ""
            },
            "default_value": "",
            "placeholder": "",
            "maxlength": "",
            "rows": "",
            "new_lines": ""
        },
        {
            "key": "field_5a32f84bb1879",
            "label": "Body HTML",
            "name": "body_html",
            "aria-label": "",
            "type": "textarea",
            "instructions": "",
            "required": 0,
            "conditional_logic": 0,
            "wrapper": {
                "width": "",
                "class": "",
                "id": ""
            },
            "default_value": "",
            "placeholder": "",
            "maxlength": "",
            "rows": "",
            "new_lines": ""
        }
    ],
    "location": [
        [
            {
                "param": "options_page",
                "operator": "==",
                "value": "acf-options-header"
            }
        ]
    ],
    "menu_order": 0,
    "position": "normal",
    "style": "seamless",
    "label_placement": "top",
    "instruction_placement": "label",
    "hide_on_screen": "",
    "active": true,
    "description": "",
    "show_in_rest": 0,
    "modified": 1684860532,
    "local_file": "\/Users\/andrewlovseth\/Local Sites\/thermarest\/app\/public\/wp-content\/themes\/therma-a-rest-blog\/acf-json\/group_58e5762493fb1.json",
    "acfml_field_group_mode": "advanced"
}